Débuter avec R
…
Chainage des opérations avec le “pipe” %>%

Une fois qu’on connait ces premiers élements l’interêt est de pouvoir les combiner.

Par exemple :

#peu lisible
FPA_v2<-arrange(select(filter(FPA, SEXEE == "2"),SEXEE, starts_with("D_")))
#ou remettre à chaque fois le nom de la table
tmp <- filter(FPA,  SEXEE == "2")
tmp <- select(tmp,SEXEE, D_DISCRI, D_PQDISC_A, D_PQDISC_B)
arrange(tmp, D_DISCRI)

# A tibble: 11,480 × 4
   SEXEE D_DISCRI D_PQDISC_A D_PQDISC_B
   <fct> <fct>    <fct>      <fct>     
 1 2     Souvent  0          0         
 2 2     Souvent  0          1         
 3 2     Souvent  0          0         
 4 2     Souvent  0          0         
 5 2     Souvent  0          0         
 6 2     Souvent  1          1         
 7 2     Souvent  0          0         
 8 2     Souvent  1          0         
 9 2     Souvent  1          0         
10 2     Souvent  0          0         
# ℹ 11,470 more rows
…
